{
    "name": "InputManagerEditorsAssem",
    "references": [
        "InputManagerAssem",
        "ReorderableListEditor",
        "HelpersEditor",
        "CodeIOEditorAssem",
        "UbuggerEditor",
        "UbuggerRuntime"
    ],
    "optionalUnityReferences": [],
    "includePlatforms": [
        "Editor"
    ],
    "excludePlatforms": [],
    "allowUnsafeCode": false,
    "overrideReferences": false,
    "precompiledReferences": [],
    "autoReferenced": true,
    "defineConstraints": [],
    "versionDefines": []
}